{
    "databases": [
        {
            "name": "quizer_db",
            "backup_cmd": ["mongodump", "--out=/data/dump/$date", "--db=quizer"],
            "restore_cmd": ["mongorestore", "-v", "--dir=/data/dump/$date"],
            "backup_dir": "/data/dump/",
            "backup_freq": "0 0 2 * *",
            "max_backups": 7
        }
    ]
}